Geometry file
Geometry file
node id assign
element id assign
coordinates
    1000
 0.00000e+00 0.00000e+00 0.00000e+00
 1.00100e-03 0.00000e+00 0.00000e+00
 2.00200e-03 0.00000e+00 0.00000e+00
 3.00300e-03 0.00000e+00 0.00000e+00
 4.00400e-03 0.00000e+00 0.00000e+00
 5.00501e-03 0.00000e+00 0.00000e+00
 6.00601e-03 0.00000e+00 0.00000e+00
 7.00701e-03 0.00000e+00 0.00000e+00
 8.00801e-03 0.00000e+00 0.00000e+00
 9.00901e-03 0.00000e+00 0.00000e+00
 1.00100e-02 0.00000e+00 0.00000e+00
 1.10110e-02 0.00000e+00 0.00000e+00
 1.20120e-02 0.00000e+00 0.00000e+00
 1.30130e-02 0.00000e+00 0.00000e+00
 1.40140e-02 0.00000e+00 0.00000e+00
 1.50150e-02 0.00000e+00 0.00000e+00
 1.60160e-02 0.00000e+00 0.00000e+00
 1.70170e-02 0.00000e+00 0.00000e+00
 1.80180e-02 0.00000e+00 0.00000e+00
 1.90190e-02 0.00000e+00 0.00000e+00
 2.00200e-02 0.00000e+00 0.00000e+00
 2.10210e-02 0.00000e+00 0.00000e+00
 2.20220e-02 0.00000e+00 0.00000e+00
 2.30230e-02 0.00000e+00 0.00000e+00
 2.40240e-02 0.00000e+00 0.00000e+00
 2.50250e-02 0.00000e+00 0.00000e+00
 2.60260e-02 0.00000e+00 0.00000e+00
 2.70270e-02 0.00000e+00 0.00000e+00
 2.80280e-02 0.00000e+00 0.00000e+00
 2.90290e-02 0.00000e+00 0.00000e+00
 3.00300e-02 0.00000e+00 0.00000e+00
 3.10310e-02 0.00000e+00 0.00000e+00
 3.20320e-02 0.00000e+00 0.00000e+00
 3.30330e-02 0.00000e+00 0.00000e+00
 3.40340e-02 0.00000e+00 0.00000e+00
 3.50350e-02 0.00000e+00 0.00000e+00
 3.60360e-02 0.00000e+00 0.00000e+00
 3.70370e-02 0.00000e+00 0.00000e+00
 3.80380e-02 0.00000e+00 0.00000e+00
 3.90390e-02 0.00000e+00 0.00000e+00
 4.00400e-02 0.00000e+00 0.00000e+00
 4.10410e-02 0.00000e+00 0.00000e+00
 4.20420e-02 0.00000e+00 0.00000e+00
 4.30430e-02 0.00000e+00 0.00000e+00
 4.40440e-02 0.00000e+00 0.00000e+00
 4.50450e-02 0.00000e+00 0.00000e+00
 4.60460e-02 0.00000e+00 0.00000e+00
 4.70470e-02 0.00000e+00 0.00000e+00
 4.80480e-02 0.00000e+00 0.00000e+00
 4.90490e-02 0.00000e+00 0.00000e+00
 5.00501e-02 0.00000e+00 0.00000e+00
 5.10511e-02 0.00000e+00 0.00000e+00
 5.20521e-02 0.00000e+00 0.00000e+00
 5.30531e-02 0.00000e+00 0.00000e+00
 5.40541e-02 0.00000e+00 0.00000e+00
 5.50551e-02 0.00000e+00 0.00000e+00
 5.60561e-02 0.00000e+00 0.00000e+00
 5.70571e-02 0.00000e+00 0.00000e+00
 5.80581e-02 0.00000e+00 0.00000e+00
 5.90591e-02 0.00000e+00 0.00000e+00
 6.00601e-02 0.00000e+00 0.00000e+00
 6.10611e-02 0.00000e+00 0.00000e+00
 6.20621e-02 0.00000e+00 0.00000e+00
 6.30631e-02 0.00000e+00 0.00000e+00
 6.40641e-02 0.00000e+00 0.00000e+00
 6.50651e-02 0.00000e+00 0.00000e+00
 6.60661e-02 0.00000e+00 0.00000e+00
 6.70671e-02 0.00000e+00 0.00000e+00
 6.80681e-02 0.00000e+00 0.00000e+00
 6.90691e-02 0.00000e+00 0.00000e+00
 7.00701e-02 0.00000e+00 0.00000e+00
 7.10711e-02 0.00000e+00 0.00000e+00
 7.20721e-02 0.00000e+00 0.00000e+00
 7.30731e-02 0.00000e+00 0.00000e+00
 7.40741e-02 0.00000e+00 0.00000e+00
 7.50751e-02 0.00000e+00 0.00000e+00
 7.60761e-02 0.00000e+00 0.00000e+00
 7.70771e-02 0.00000e+00 0.00000e+00
 7.80781e-02 0.00000e+00 0.00000e+00
 7.90791e-02 0.00000e+00 0.00000e+00
 8.00801e-02 0.00000e+00 0.00000e+00
 8.10811e-02 0.00000e+00 0.00000e+00
 8.20821e-02 0.00000e+00 0.00000e+00
 8.30831e-02 0.00000e+00 0.00000e+00
 8.40841e-02 0.00000e+00 0.00000e+00
 8.50851e-02 0.00000e+00 0.00000e+00
 8.60861e-02 0.00000e+00 0.00000e+00
 8.70871e-02 0.00000e+00 0.00000e+00
 8.80881e-02 0.00000e+00 0.00000e+00
 8.90891e-02 0.00000e+00 0.00000e+00
 9.00901e-02 0.00000e+00 0.00000e+00
 9.10911e-02 0.00000e+00 0.00000e+00
 9.20921e-02 0.00000e+00 0.00000e+00
 9.30931e-02 0.00000e+00 0.00000e+00
 9.40941e-02 0.00000e+00 0.00000e+00
 9.50951e-02 0.00000e+00 0.00000e+00
 9.60961e-02 0.00000e+00 0.00000e+00
 9.70971e-02 0.00000e+00 0.00000e+00
 9.80981e-02 0.00000e+00 0.00000e+00
 9.90991e-02 0.00000e+00 0.00000e+00
 1.00100e-01 0.00000e+00 0.00000e+00
 1.01101e-01 0.00000e+00 0.00000e+00
 1.02102e-01 0.00000e+00 0.00000e+00
 1.03103e-01 0.00000e+00 0.00000e+00
 1.04104e-01 0.00000e+00 0.00000e+00
 1.05105e-01 0.00000e+00 0.00000e+00
 1.06106e-01 0.00000e+00 0.00000e+00
 1.07107e-01 0.00000e+00 0.00000e+00
 1.08108e-01 0.00000e+00 0.00000e+00
 1.09109e-01 0.00000e+00 0.00000e+00
 1.10110e-01 0.00000e+00 0.00000e+00
 1.11111e-01 0.00000e+00 0.00000e+00
 1.12112e-01 0.00000e+00 0.00000e+00
 1.13113e-01 0.00000e+00 0.00000e+00
 1.14114e-01 0.00000e+00 0.00000e+00
 1.15115e-01 0.00000e+00 0.00000e+00
 1.16116e-01 0.00000e+00 0.00000e+00
 1.17117e-01 0.00000e+00 0.00000e+00
 1.18118e-01 0.00000e+00 0.00000e+00
 1.19119e-01 0.00000e+00 0.00000e+00
 1.20120e-01 0.00000e+00 0.00000e+00
 1.21121e-01 0.00000e+00 0.00000e+00
 1.22122e-01 0.00000e+00 0.00000e+00
 1.23123e-01 0.00000e+00 0.00000e+00
 1.24124e-01 0.00000e+00 0.00000e+00
 1.25125e-01 0.00000e+00 0.00000e+00
 1.26126e-01 0.00000e+00 0.00000e+00
 1.27127e-01 0.00000e+00 0.00000e+00
 1.28128e-01 0.00000e+00 0.00000e+00
 1.29129e-01 0.00000e+00 0.00000e+00
 1.30130e-01 0.00000e+00 0.00000e+00
 1.31131e-01 0.00000e+00 0.00000e+00
 1.32132e-01 0.00000e+00 0.00000e+00
 1.33133e-01 0.00000e+00 0.00000e+00
 1.34134e-01 0.00000e+00 0.00000e+00
 1.35135e-01 0.00000e+00 0.00000e+00
 1.36136e-01 0.00000e+00 0.00000e+00
 1.37137e-01 0.00000e+00 0.00000e+00
 1.38138e-01 0.00000e+00 0.00000e+00
 1.39139e-01 0.00000e+00 0.00000e+00
 1.40140e-01 0.00000e+00 0.00000e+00
 1.41141e-01 0.00000e+00 0.00000e+00
 1.42142e-01 0.00000e+00 0.00000e+00
 1.43143e-01 0.00000e+00 0.00000e+00
 1.44144e-01 0.00000e+00 0.00000e+00
 1.45145e-01 0.00000e+00 0.00000e+00
 1.46146e-01 0.00000e+00 0.00000e+00
 1.47147e-01 0.00000e+00 0.00000e+00
 1.48148e-01 0.00000e+00 0.00000e+00
 1.49149e-01 0.00000e+00 0.00000e+00
 1.50150e-01 0.00000e+00 0.00000e+00
 1.51151e-01 0.00000e+00 0.00000e+00
 1.52152e-01 0.00000e+00 0.00000e+00
 1.53153e-01 0.00000e+00 0.00000e+00
 1.54154e-01 0.00000e+00 0.00000e+00
 1.55155e-01 0.00000e+00 0.00000e+00
 1.56156e-01 0.00000e+00 0.00000e+00
 1.57157e-01 0.00000e+00 0.00000e+00
 1.58158e-01 0.00000e+00 0.00000e+00
 1.59159e-01 0.00000e+00 0.00000e+00
 1.60160e-01 0.00000e+00 0.00000e+00
 1.61161e-01 0.00000e+00 0.00000e+00
 1.62162e-01 0.00000e+00 0.00000e+00
 1.63163e-01 0.00000e+00 0.00000e+00
 1.64164e-01 0.00000e+00 0.00000e+00
 1.65165e-01 0.00000e+00 0.00000e+00
 1.66166e-01 0.00000e+00 0.00000e+00
 1.67167e-01 0.00000e+00 0.00000e+00
 1.68168e-01 0.00000e+00 0.00000e+00
 1.69169e-01 0.00000e+00 0.00000e+00
 1.70170e-01 0.00000e+00 0.00000e+00
 1.71171e-01 0.00000e+00 0.00000e+00
 1.72172e-01 0.00000e+00 0.00000e+00
 1.73173e-01 0.00000e+00 0.00000e+00
 1.74174e-01 0.00000e+00 0.00000e+00
 1.75175e-01 0.00000e+00 0.00000e+00
 1.76176e-01 0.00000e+00 0.00000e+00
 1.77177e-01 0.00000e+00 0.00000e+00
 1.78178e-01 0.00000e+00 0.00000e+00
 1.79179e-01 0.00000e+00 0.00000e+00
 1.80180e-01 0.00000e+00 0.00000e+00
 1.81181e-01 0.00000e+00 0.00000e+00
 1.82182e-01 0.00000e+00 0.00000e+00
 1.83183e-01 0.00000e+00 0.00000e+00
 1.84184e-01 0.00000e+00 0.00000e+00
 1.85185e-01 0.00000e+00 0.00000e+00
 1.86186e-01 0.00000e+00 0.00000e+00
 1.87187e-01 0.00000e+00 0.00000e+00
 1.88188e-01 0.00000e+00 0.00000e+00
 1.89189e-01 0.00000e+00 0.00000e+00
 1.90190e-01 0.00000e+00 0.00000e+00
 1.91191e-01 0.00000e+00 0.00000e+00
 1.92192e-01 0.00000e+00 0.00000e+00
 1.93193e-01 0.00000e+00 0.00000e+00
 1.94194e-01 0.00000e+00 0.00000e+00
 1.95195e-01 0.00000e+00 0.00000e+00
 1.96196e-01 0.00000e+00 0.00000e+00
 1.97197e-01 0.00000e+00 0.00000e+00
 1.98198e-01 0.00000e+00 0.00000e+00
 1.99199e-01 0.00000e+00 0.00000e+00
 2.00200e-01 0.00000e+00 0.00000e+00
 2.01201e-01 0.00000e+00 0.00000e+00
 2.02202e-01 0.00000e+00 0.00000e+00
 2.03203e-01 0.00000e+00 0.00000e+00
 2.04204e-01 0.00000e+00 0.00000e+00
 2.05205e-01 0.00000e+00 0.00000e+00
 2.06206e-01 0.00000e+00 0.00000e+00
 2.07207e-01 0.00000e+00 0.00000e+00
 2.08208e-01 0.00000e+00 0.00000e+00
 2.09209e-01 0.00000e+00 0.00000e+00
 2.10210e-01 0.00000e+00 0.00000e+00
 2.11211e-01 0.00000e+00 0.00000e+00
 2.12212e-01 0.00000e+00 0.00000e+00
 2.13213e-01 0.00000e+00 0.00000e+00
 2.14214e-01 0.00000e+00 0.00000e+00
 2.15215e-01 0.00000e+00 0.00000e+00
 2.16216e-01 0.00000e+00 0.00000e+00
 2.17217e-01 0.00000e+00 0.00000e+00
 2.18218e-01 0.00000e+00 0.00000e+00
 2.19219e-01 0.00000e+00 0.00000e+00
 2.20220e-01 0.00000e+00 0.00000e+00
 2.21221e-01 0.00000e+00 0.00000e+00
 2.22222e-01 0.00000e+00 0.00000e+00
 2.23223e-01 0.00000e+00 0.00000e+00
 2.24224e-01 0.00000e+00 0.00000e+00
 2.25225e-01 0.00000e+00 0.00000e+00
 2.26226e-01 0.00000e+00 0.00000e+00
 2.27227e-01 0.00000e+00 0.00000e+00
 2.28228e-01 0.00000e+00 0.00000e+00
 2.29229e-01 0.00000e+00 0.00000e+00
 2.30230e-01 0.00000e+00 0.00000e+00
 2.31231e-01 0.00000e+00 0.00000e+00
 2.32232e-01 0.00000e+00 0.00000e+00
 2.33233e-01 0.00000e+00 0.00000e+00
 2.34234e-01 0.00000e+00 0.00000e+00
 2.35235e-01 0.00000e+00 0.00000e+00
 2.36236e-01 0.00000e+00 0.00000e+00
 2.37237e-01 0.00000e+00 0.00000e+00
 2.38238e-01 0.00000e+00 0.00000e+00
 2.39239e-01 0.00000e+00 0.00000e+00
 2.40240e-01 0.00000e+00 0.00000e+00
 2.41241e-01 0.00000e+00 0.00000e+00
 2.42242e-01 0.00000e+00 0.00000e+00
 2.43243e-01 0.00000e+00 0.00000e+00
 2.44244e-01 0.00000e+00 0.00000e+00
 2.45245e-01 0.00000e+00 0.00000e+00
 2.46246e-01 0.00000e+00 0.00000e+00
 2.47247e-01 0.00000e+00 0.00000e+00
 2.48248e-01 0.00000e+00 0.00000e+00
 2.49249e-01 0.00000e+00 0.00000e+00
 2.50250e-01 0.00000e+00 0.00000e+00
 2.51251e-01 0.00000e+00 0.00000e+00
 2.52252e-01 0.00000e+00 0.00000e+00
 2.53253e-01 0.00000e+00 0.00000e+00
 2.54254e-01 0.00000e+00 0.00000e+00
 2.55255e-01 0.00000e+00 0.00000e+00
 2.56256e-01 0.00000e+00 0.00000e+00
 2.57257e-01 0.00000e+00 0.00000e+00
 2.58258e-01 0.00000e+00 0.00000e+00
 2.59259e-01 0.00000e+00 0.00000e+00
 2.60260e-01 0.00000e+00 0.00000e+00
 2.61261e-01 0.00000e+00 0.00000e+00
 2.62262e-01 0.00000e+00 0.00000e+00
 2.63263e-01 0.00000e+00 0.00000e+00
 2.64264e-01 0.00000e+00 0.00000e+00
 2.65265e-01 0.00000e+00 0.00000e+00
 2.66266e-01 0.00000e+00 0.00000e+00
 2.67267e-01 0.00000e+00 0.00000e+00
 2.68268e-01 0.00000e+00 0.00000e+00
 2.69269e-01 0.00000e+00 0.00000e+00
 2.70270e-01 0.00000e+00 0.00000e+00
 2.71271e-01 0.00000e+00 0.00000e+00
 2.72272e-01 0.00000e+00 0.00000e+00
 2.73273e-01 0.00000e+00 0.00000e+00
 2.74274e-01 0.00000e+00 0.00000e+00
 2.75275e-01 0.00000e+00 0.00000e+00
 2.76276e-01 0.00000e+00 0.00000e+00
 2.77277e-01 0.00000e+00 0.00000e+00
 2.78278e-01 0.00000e+00 0.00000e+00
 2.79279e-01 0.00000e+00 0.00000e+00
 2.80280e-01 0.00000e+00 0.00000e+00
 2.81281e-01 0.00000e+00 0.00000e+00
 2.82282e-01 0.00000e+00 0.00000e+00
 2.83283e-01 0.00000e+00 0.00000e+00
 2.84284e-01 0.00000e+00 0.00000e+00
 2.85285e-01 0.00000e+00 0.00000e+00
 2.86286e-01 0.00000e+00 0.00000e+00
 2.87287e-01 0.00000e+00 0.00000e+00
 2.88288e-01 0.00000e+00 0.00000e+00
 2.89289e-01 0.00000e+00 0.00000e+00
 2.90290e-01 0.00000e+00 0.00000e+00
 2.91291e-01 0.00000e+00 0.00000e+00
 2.92292e-01 0.00000e+00 0.00000e+00
 2.93293e-01 0.00000e+00 0.00000e+00
 2.94294e-01 0.00000e+00 0.00000e+00
 2.95295e-01 0.00000e+00 0.00000e+00
 2.96296e-01 0.00000e+00 0.00000e+00
 2.97297e-01 0.00000e+00 0.00000e+00
 2.98298e-01 0.00000e+00 0.00000e+00
 2.99299e-01 0.00000e+00 0.00000e+00
 3.00300e-01 0.00000e+00 0.00000e+00
 3.01301e-01 0.00000e+00 0.00000e+00
 3.02302e-01 0.00000e+00 0.00000e+00
 3.03303e-01 0.00000e+00 0.00000e+00
 3.04304e-01 0.00000e+00 0.00000e+00
 3.05305e-01 0.00000e+00 0.00000e+00
 3.06306e-01 0.00000e+00 0.00000e+00
 3.07307e-01 0.00000e+00 0.00000e+00
 3.08308e-01 0.00000e+00 0.00000e+00
 3.09309e-01 0.00000e+00 0.00000e+00
 3.10310e-01 0.00000e+00 0.00000e+00
 3.11311e-01 0.00000e+00 0.00000e+00
 3.12312e-01 0.00000e+00 0.00000e+00
 3.13313e-01 0.00000e+00 0.00000e+00
 3.14314e-01 0.00000e+00 0.00000e+00
 3.15315e-01 0.00000e+00 0.00000e+00
 3.16316e-01 0.00000e+00 0.00000e+00
 3.17317e-01 0.00000e+00 0.00000e+00
 3.18318e-01 0.00000e+00 0.00000e+00
 3.19319e-01 0.00000e+00 0.00000e+00
 3.20320e-01 0.00000e+00 0.00000e+00
 3.21321e-01 0.00000e+00 0.00000e+00
 3.22322e-01 0.00000e+00 0.00000e+00
 3.23323e-01 0.00000e+00 0.00000e+00
 3.24324e-01 0.00000e+00 0.00000e+00
 3.25325e-01 0.00000e+00 0.00000e+00
 3.26326e-01 0.00000e+00 0.00000e+00
 3.27327e-01 0.00000e+00 0.00000e+00
 3.28328e-01 0.00000e+00 0.00000e+00
 3.29329e-01 0.00000e+00 0.00000e+00
 3.30330e-01 0.00000e+00 0.00000e+00
 3.31331e-01 0.00000e+00 0.00000e+00
 3.32332e-01 0.00000e+00 0.00000e+00
 3.33333e-01 0.00000e+00 0.00000e+00
 3.34334e-01 0.00000e+00 0.00000e+00
 3.35335e-01 0.00000e+00 0.00000e+00
 3.36336e-01 0.00000e+00 0.00000e+00
 3.37337e-01 0.00000e+00 0.00000e+00
 3.38338e-01 0.00000e+00 0.00000e+00
 3.39339e-01 0.00000e+00 0.00000e+00
 3.40340e-01 0.00000e+00 0.00000e+00
 3.41341e-01 0.00000e+00 0.00000e+00
 3.42342e-01 0.00000e+00 0.00000e+00
 3.43343e-01 0.00000e+00 0.00000e+00
 3.44344e-01 0.00000e+00 0.00000e+00
 3.45345e-01 0.00000e+00 0.00000e+00
 3.46346e-01 0.00000e+00 0.00000e+00
 3.47347e-01 0.00000e+00 0.00000e+00
 3.48348e-01 0.00000e+00 0.00000e+00
 3.49349e-01 0.00000e+00 0.00000e+00
 3.50350e-01 0.00000e+00 0.00000e+00
 3.51351e-01 0.00000e+00 0.00000e+00
 3.52352e-01 0.00000e+00 0.00000e+00
 3.53353e-01 0.00000e+00 0.00000e+00
 3.54354e-01 0.00000e+00 0.00000e+00
 3.55355e-01 0.00000e+00 0.00000e+00
 3.56356e-01 0.00000e+00 0.00000e+00
 3.57357e-01 0.00000e+00 0.00000e+00
 3.58358e-01 0.00000e+00 0.00000e+00
 3.59359e-01 0.00000e+00 0.00000e+00
 3.60360e-01 0.00000e+00 0.00000e+00
 3.61361e-01 0.00000e+00 0.00000e+00
 3.62362e-01 0.00000e+00 0.00000e+00
 3.63363e-01 0.00000e+00 0.00000e+00
 3.64364e-01 0.00000e+00 0.00000e+00
 3.65365e-01 0.00000e+00 0.00000e+00
 3.66366e-01 0.00000e+00 0.00000e+00
 3.67367e-01 0.00000e+00 0.00000e+00
 3.68368e-01 0.00000e+00 0.00000e+00
 3.69369e-01 0.00000e+00 0.00000e+00
 3.70370e-01 0.00000e+00 0.00000e+00
 3.71371e-01 0.00000e+00 0.00000e+00
 3.72372e-01 0.00000e+00 0.00000e+00
 3.73373e-01 0.00000e+00 0.00000e+00
 3.74374e-01 0.00000e+00 0.00000e+00
 3.75375e-01 0.00000e+00 0.00000e+00
 3.76376e-01 0.00000e+00 0.00000e+00
 3.77377e-01 0.00000e+00 0.00000e+00
 3.78378e-01 0.00000e+00 0.00000e+00
 3.79379e-01 0.00000e+00 0.00000e+00
 3.80380e-01 0.00000e+00 0.00000e+00
 3.81381e-01 0.00000e+00 0.00000e+00
 3.82382e-01 0.00000e+00 0.00000e+00
 3.83383e-01 0.00000e+00 0.00000e+00
 3.84384e-01 0.00000e+00 0.00000e+00
 3.85385e-01 0.00000e+00 0.00000e+00
 3.86386e-01 0.00000e+00 0.00000e+00
 3.87387e-01 0.00000e+00 0.00000e+00
 3.88388e-01 0.00000e+00 0.00000e+00
 3.89389e-01 0.00000e+00 0.00000e+00
 3.90390e-01 0.00000e+00 0.00000e+00
 3.91391e-01 0.00000e+00 0.00000e+00
 3.92392e-01 0.00000e+00 0.00000e+00
 3.93393e-01 0.00000e+00 0.00000e+00
 3.94394e-01 0.00000e+00 0.00000e+00
 3.95395e-01 0.00000e+00 0.00000e+00
 3.96396e-01 0.00000e+00 0.00000e+00
 3.97397e-01 0.00000e+00 0.00000e+00
 3.98398e-01 0.00000e+00 0.00000e+00
 3.99399e-01 0.00000e+00 0.00000e+00
 4.00400e-01 0.00000e+00 0.00000e+00
 4.01401e-01 0.00000e+00 0.00000e+00
 4.02402e-01 0.00000e+00 0.00000e+00
 4.03403e-01 0.00000e+00 0.00000e+00
 4.04404e-01 0.00000e+00 0.00000e+00
 4.05405e-01 0.00000e+00 0.00000e+00
 4.06406e-01 0.00000e+00 0.00000e+00
 4.07407e-01 0.00000e+00 0.00000e+00
 4.08408e-01 0.00000e+00 0.00000e+00
 4.09409e-01 0.00000e+00 0.00000e+00
 4.10410e-01 0.00000e+00 0.00000e+00
 4.11411e-01 0.00000e+00 0.00000e+00
 4.12412e-01 0.00000e+00 0.00000e+00
 4.13413e-01 0.00000e+00 0.00000e+00
 4.14414e-01 0.00000e+00 0.00000e+00
 4.15415e-01 0.00000e+00 0.00000e+00
 4.16416e-01 0.00000e+00 0.00000e+00
 4.17417e-01 0.00000e+00 0.00000e+00
 4.18418e-01 0.00000e+00 0.00000e+00
 4.19419e-01 0.00000e+00 0.00000e+00
 4.20420e-01 0.00000e+00 0.00000e+00
 4.21421e-01 0.00000e+00 0.00000e+00
 4.22422e-01 0.00000e+00 0.00000e+00
 4.23423e-01 0.00000e+00 0.00000e+00
 4.24424e-01 0.00000e+00 0.00000e+00
 4.25425e-01 0.00000e+00 0.00000e+00
 4.26426e-01 0.00000e+00 0.00000e+00
 4.27427e-01 0.00000e+00 0.00000e+00
 4.28428e-01 0.00000e+00 0.00000e+00
 4.29429e-01 0.00000e+00 0.00000e+00
 4.30430e-01 0.00000e+00 0.00000e+00
 4.31431e-01 0.00000e+00 0.00000e+00
 4.32432e-01 0.00000e+00 0.00000e+00
 4.33433e-01 0.00000e+00 0.00000e+00
 4.34434e-01 0.00000e+00 0.00000e+00
 4.35435e-01 0.00000e+00 0.00000e+00
 4.36436e-01 0.00000e+00 0.00000e+00
 4.37437e-01 0.00000e+00 0.00000e+00
 4.38438e-01 0.00000e+00 0.00000e+00
 4.39439e-01 0.00000e+00 0.00000e+00
 4.40440e-01 0.00000e+00 0.00000e+00
 4.41441e-01 0.00000e+00 0.00000e+00
 4.42442e-01 0.00000e+00 0.00000e+00
 4.43443e-01 0.00000e+00 0.00000e+00
 4.44444e-01 0.00000e+00 0.00000e+00
 4.45445e-01 0.00000e+00 0.00000e+00
 4.46446e-01 0.00000e+00 0.00000e+00
 4.47447e-01 0.00000e+00 0.00000e+00
 4.48448e-01 0.00000e+00 0.00000e+00
 4.49449e-01 0.00000e+00 0.00000e+00
 4.50450e-01 0.00000e+00 0.00000e+00
 4.51451e-01 0.00000e+00 0.00000e+00
 4.52452e-01 0.00000e+00 0.00000e+00
 4.53453e-01 0.00000e+00 0.00000e+00
 4.54454e-01 0.00000e+00 0.00000e+00
 4.55455e-01 0.00000e+00 0.00000e+00
 4.56456e-01 0.00000e+00 0.00000e+00
 4.57457e-01 0.00000e+00 0.00000e+00
 4.58458e-01 0.00000e+00 0.00000e+00
 4.59459e-01 0.00000e+00 0.00000e+00
 4.60460e-01 0.00000e+00 0.00000e+00
 4.61461e-01 0.00000e+00 0.00000e+00
 4.62462e-01 0.00000e+00 0.00000e+00
 4.63463e-01 0.00000e+00 0.00000e+00
 4.64464e-01 0.00000e+00 0.00000e+00
 4.65465e-01 0.00000e+00 0.00000e+00
 4.66466e-01 0.00000e+00 0.00000e+00
 4.67467e-01 0.00000e+00 0.00000e+00
 4.68468e-01 0.00000e+00 0.00000e+00
 4.69469e-01 0.00000e+00 0.00000e+00
 4.70470e-01 0.00000e+00 0.00000e+00
 4.71471e-01 0.00000e+00 0.00000e+00
 4.72472e-01 0.00000e+00 0.00000e+00
 4.73473e-01 0.00000e+00 0.00000e+00
 4.74474e-01 0.00000e+00 0.00000e+00
 4.75475e-01 0.00000e+00 0.00000e+00
 4.76476e-01 0.00000e+00 0.00000e+00
 4.77477e-01 0.00000e+00 0.00000e+00
 4.78478e-01 0.00000e+00 0.00000e+00
 4.79479e-01 0.00000e+00 0.00000e+00
 4.80480e-01 0.00000e+00 0.00000e+00
 4.81481e-01 0.00000e+00 0.00000e+00
 4.82482e-01 0.00000e+00 0.00000e+00
 4.83483e-01 0.00000e+00 0.00000e+00
 4.84484e-01 0.00000e+00 0.00000e+00
 4.85485e-01 0.00000e+00 0.00000e+00
 4.86486e-01 0.00000e+00 0.00000e+00
 4.87487e-01 0.00000e+00 0.00000e+00
 4.88488e-01 0.00000e+00 0.00000e+00
 4.89489e-01 0.00000e+00 0.00000e+00
 4.90490e-01 0.00000e+00 0.00000e+00
 4.91491e-01 0.00000e+00 0.00000e+00
 4.92492e-01 0.00000e+00 0.00000e+00
 4.93493e-01 0.00000e+00 0.00000e+00
 4.94494e-01 0.00000e+00 0.00000e+00
 4.95495e-01 0.00000e+00 0.00000e+00
 4.96496e-01 0.00000e+00 0.00000e+00
 4.97497e-01 0.00000e+00 0.00000e+00
 4.98498e-01 0.00000e+00 0.00000e+00
 4.99499e-01 0.00000e+00 0.00000e+00
 5.00501e-01 0.00000e+00 0.00000e+00
 5.01502e-01 0.00000e+00 0.00000e+00
 5.02503e-01 0.00000e+00 0.00000e+00
 5.03504e-01 0.00000e+00 0.00000e+00
 5.04505e-01 0.00000e+00 0.00000e+00
 5.05506e-01 0.00000e+00 0.00000e+00
 5.06507e-01 0.00000e+00 0.00000e+00
 5.07508e-01 0.00000e+00 0.00000e+00
 5.08509e-01 0.00000e+00 0.00000e+00
 5.09510e-01 0.00000e+00 0.00000e+00
 5.10511e-01 0.00000e+00 0.00000e+00
 5.11512e-01 0.00000e+00 0.00000e+00
 5.12513e-01 0.00000e+00 0.00000e+00
 5.13514e-01 0.00000e+00 0.00000e+00
 5.14515e-01 0.00000e+00 0.00000e+00
 5.15516e-01 0.00000e+00 0.00000e+00
 5.16517e-01 0.00000e+00 0.00000e+00
 5.17518e-01 0.00000e+00 0.00000e+00
 5.18519e-01 0.00000e+00 0.00000e+00
 5.19520e-01 0.00000e+00 0.00000e+00
 5.20521e-01 0.00000e+00 0.00000e+00
 5.21522e-01 0.00000e+00 0.00000e+00
 5.22523e-01 0.00000e+00 0.00000e+00
 5.23524e-01 0.00000e+00 0.00000e+00
 5.24525e-01 0.00000e+00 0.00000e+00
 5.25526e-01 0.00000e+00 0.00000e+00
 5.26527e-01 0.00000e+00 0.00000e+00
 5.27528e-01 0.00000e+00 0.00000e+00
 5.28529e-01 0.00000e+00 0.00000e+00
 5.29530e-01 0.00000e+00 0.00000e+00
 5.30531e-01 0.00000e+00 0.00000e+00
 5.31532e-01 0.00000e+00 0.00000e+00
 5.32533e-01 0.00000e+00 0.00000e+00
 5.33534e-01 0.00000e+00 0.00000e+00
 5.34535e-01 0.00000e+00 0.00000e+00
 5.35536e-01 0.00000e+00 0.00000e+00
 5.36537e-01 0.00000e+00 0.00000e+00
 5.37538e-01 0.00000e+00 0.00000e+00
 5.38539e-01 0.00000e+00 0.00000e+00
 5.39540e-01 0.00000e+00 0.00000e+00
 5.40541e-01 0.00000e+00 0.00000e+00
 5.41542e-01 0.00000e+00 0.00000e+00
 5.42543e-01 0.00000e+00 0.00000e+00
 5.43544e-01 0.00000e+00 0.00000e+00
 5.44545e-01 0.00000e+00 0.00000e+00
 5.45546e-01 0.00000e+00 0.00000e+00
 5.46547e-01 0.00000e+00 0.00000e+00
 5.47548e-01 0.00000e+00 0.00000e+00
 5.48549e-01 0.00000e+00 0.00000e+00
 5.49550e-01 0.00000e+00 0.00000e+00
 5.50551e-01 0.00000e+00 0.00000e+00
 5.51552e-01 0.00000e+00 0.00000e+00
 5.52553e-01 0.00000e+00 0.00000e+00
 5.53554e-01 0.00000e+00 0.00000e+00
 5.54555e-01 0.00000e+00 0.00000e+00
 5.55556e-01 0.00000e+00 0.00000e+00
 5.56557e-01 0.00000e+00 0.00000e+00
 5.57558e-01 0.00000e+00 0.00000e+00
 5.58559e-01 0.00000e+00 0.00000e+00
 5.59560e-01 0.00000e+00 0.00000e+00
 5.60561e-01 0.00000e+00 0.00000e+00
 5.61562e-01 0.00000e+00 0.00000e+00
 5.62563e-01 0.00000e+00 0.00000e+00
 5.63564e-01 0.00000e+00 0.00000e+00
 5.64565e-01 0.00000e+00 0.00000e+00
 5.65566e-01 0.00000e+00 0.00000e+00
 5.66567e-01 0.00000e+00 0.00000e+00
 5.67568e-01 0.00000e+00 0.00000e+00
 5.68569e-01 0.00000e+00 0.00000e+00
 5.69570e-01 0.00000e+00 0.00000e+00
 5.70571e-01 0.00000e+00 0.00000e+00
 5.71572e-01 0.00000e+00 0.00000e+00
 5.72573e-01 0.00000e+00 0.00000e+00
 5.73574e-01 0.00000e+00 0.00000e+00
 5.74575e-01 0.00000e+00 0.00000e+00
 5.75576e-01 0.00000e+00 0.00000e+00
 5.76577e-01 0.00000e+00 0.00000e+00
 5.77578e-01 0.00000e+00 0.00000e+00
 5.78579e-01 0.00000e+00 0.00000e+00
 5.79580e-01 0.00000e+00 0.00000e+00
 5.80581e-01 0.00000e+00 0.00000e+00
 5.81582e-01 0.00000e+00 0.00000e+00
 5.82583e-01 0.00000e+00 0.00000e+00
 5.83584e-01 0.00000e+00 0.00000e+00
 5.84585e-01 0.00000e+00 0.00000e+00
 5.85586e-01 0.00000e+00 0.00000e+00
 5.86587e-01 0.00000e+00 0.00000e+00
 5.87588e-01 0.00000e+00 0.00000e+00
 5.88589e-01 0.00000e+00 0.00000e+00
 5.89590e-01 0.00000e+00 0.00000e+00
 5.90591e-01 0.00000e+00 0.00000e+00
 5.91592e-01 0.00000e+00 0.00000e+00
 5.92593e-01 0.00000e+00 0.00000e+00
 5.93594e-01 0.00000e+00 0.00000e+00
 5.94595e-01 0.00000e+00 0.00000e+00
 5.95596e-01 0.00000e+00 0.00000e+00
 5.96597e-01 0.00000e+00 0.00000e+00
 5.97598e-01 0.00000e+00 0.00000e+00
 5.98599e-01 0.00000e+00 0.00000e+00
 5.99600e-01 0.00000e+00 0.00000e+00
 6.00601e-01 0.00000e+00 0.00000e+00
 6.01602e-01 0.00000e+00 0.00000e+00
 6.02603e-01 0.00000e+00 0.00000e+00
 6.03604e-01 0.00000e+00 0.00000e+00
 6.04605e-01 0.00000e+00 0.00000e+00
 6.05606e-01 0.00000e+00 0.00000e+00
 6.06607e-01 0.00000e+00 0.00000e+00
 6.07608e-01 0.00000e+00 0.00000e+00
 6.08609e-01 0.00000e+00 0.00000e+00
 6.09610e-01 0.00000e+00 0.00000e+00
 6.10611e-01 0.00000e+00 0.00000e+00
 6.11612e-01 0.00000e+00 0.00000e+00
 6.12613e-01 0.00000e+00 0.00000e+00
 6.13614e-01 0.00000e+00 0.00000e+00
 6.14615e-01 0.00000e+00 0.00000e+00
 6.15616e-01 0.00000e+00 0.00000e+00
 6.16617e-01 0.00000e+00 0.00000e+00
 6.17618e-01 0.00000e+00 0.00000e+00
 6.18619e-01 0.00000e+00 0.00000e+00
 6.19620e-01 0.00000e+00 0.00000e+00
 6.20621e-01 0.00000e+00 0.00000e+00
 6.21622e-01 0.00000e+00 0.00000e+00
 6.22623e-01 0.00000e+00 0.00000e+00
 6.23624e-01 0.00000e+00 0.00000e+00
 6.24625e-01 0.00000e+00 0.00000e+00
 6.25626e-01 0.00000e+00 0.00000e+00
 6.26627e-01 0.00000e+00 0.00000e+00
 6.27628e-01 0.00000e+00 0.00000e+00
 6.28629e-01 0.00000e+00 0.00000e+00
 6.29630e-01 0.00000e+00 0.00000e+00
 6.30631e-01 0.00000e+00 0.00000e+00
 6.31632e-01 0.00000e+00 0.00000e+00
 6.32633e-01 0.00000e+00 0.00000e+00
 6.33634e-01 0.00000e+00 0.00000e+00
 6.34635e-01 0.00000e+00 0.00000e+00
 6.35636e-01 0.00000e+00 0.00000e+00
 6.36637e-01 0.00000e+00 0.00000e+00
 6.37638e-01 0.00000e+00 0.00000e+00
 6.38639e-01 0.00000e+00 0.00000e+00
 6.39640e-01 0.00000e+00 0.00000e+00
 6.40641e-01 0.00000e+00 0.00000e+00
 6.41642e-01 0.00000e+00 0.00000e+00
 6.42643e-01 0.00000e+00 0.00000e+00
 6.43644e-01 0.00000e+00 0.00000e+00
 6.44645e-01 0.00000e+00 0.00000e+00
 6.45646e-01 0.00000e+00 0.00000e+00
 6.46647e-01 0.00000e+00 0.00000e+00
 6.47648e-01 0.00000e+00 0.00000e+00
 6.48649e-01 0.00000e+00 0.00000e+00
 6.49650e-01 0.00000e+00 0.00000e+00
 6.50651e-01 0.00000e+00 0.00000e+00
 6.51652e-01 0.00000e+00 0.00000e+00
 6.52653e-01 0.00000e+00 0.00000e+00
 6.53654e-01 0.00000e+00 0.00000e+00
 6.54655e-01 0.00000e+00 0.00000e+00
 6.55656e-01 0.00000e+00 0.00000e+00
 6.56657e-01 0.00000e+00 0.00000e+00
 6.57658e-01 0.00000e+00 0.00000e+00
 6.58659e-01 0.00000e+00 0.00000e+00
 6.59660e-01 0.00000e+00 0.00000e+00
 6.60661e-01 0.00000e+00 0.00000e+00
 6.61662e-01 0.00000e+00 0.00000e+00
 6.62663e-01 0.00000e+00 0.00000e+00
 6.63664e-01 0.00000e+00 0.00000e+00
 6.64665e-01 0.00000e+00 0.00000e+00
 6.65666e-01 0.00000e+00 0.00000e+00
 6.66667e-01 0.00000e+00 0.00000e+00
 6.67668e-01 0.00000e+00 0.00000e+00
 6.68669e-01 0.00000e+00 0.00000e+00
 6.69670e-01 0.00000e+00 0.00000e+00
 6.70671e-01 0.00000e+00 0.00000e+00
 6.71672e-01 0.00000e+00 0.00000e+00
 6.72673e-01 0.00000e+00 0.00000e+00
 6.73674e-01 0.00000e+00 0.00000e+00
 6.74675e-01 0.00000e+00 0.00000e+00
 6.75676e-01 0.00000e+00 0.00000e+00
 6.76677e-01 0.00000e+00 0.00000e+00
 6.77678e-01 0.00000e+00 0.00000e+00
 6.78679e-01 0.00000e+00 0.00000e+00
 6.79680e-01 0.00000e+00 0.00000e+00
 6.80681e-01 0.00000e+00 0.00000e+00
 6.81682e-01 0.00000e+00 0.00000e+00
 6.82683e-01 0.00000e+00 0.00000e+00
 6.83684e-01 0.00000e+00 0.00000e+00
 6.84685e-01 0.00000e+00 0.00000e+00
 6.85686e-01 0.00000e+00 0.00000e+00
 6.86687e-01 0.00000e+00 0.00000e+00
 6.87688e-01 0.00000e+00 0.00000e+00
 6.88689e-01 0.00000e+00 0.00000e+00
 6.89690e-01 0.00000e+00 0.00000e+00
 6.90691e-01 0.00000e+00 0.00000e+00
 6.91692e-01 0.00000e+00 0.00000e+00
 6.92693e-01 0.00000e+00 0.00000e+00
 6.93694e-01 0.00000e+00 0.00000e+00
 6.94695e-01 0.00000e+00 0.00000e+00
 6.95696e-01 0.00000e+00 0.00000e+00
 6.96697e-01 0.00000e+00 0.00000e+00
 6.97698e-01 0.00000e+00 0.00000e+00
 6.98699e-01 0.00000e+00 0.00000e+00
 6.99700e-01 0.00000e+00 0.00000e+00
 7.00701e-01 0.00000e+00 0.00000e+00
 7.01702e-01 0.00000e+00 0.00000e+00
 7.02703e-01 0.00000e+00 0.00000e+00
 7.03704e-01 0.00000e+00 0.00000e+00
 7.04705e-01 0.00000e+00 0.00000e+00
 7.05706e-01 0.00000e+00 0.00000e+00
 7.06707e-01 0.00000e+00 0.00000e+00
 7.07708e-01 0.00000e+00 0.00000e+00
 7.08709e-01 0.00000e+00 0.00000e+00
 7.09710e-01 0.00000e+00 0.00000e+00
 7.10711e-01 0.00000e+00 0.00000e+00
 7.11712e-01 0.00000e+00 0.00000e+00
 7.12713e-01 0.00000e+00 0.00000e+00
 7.13714e-01 0.00000e+00 0.00000e+00
 7.14715e-01 0.00000e+00 0.00000e+00
 7.15716e-01 0.00000e+00 0.00000e+00
 7.16717e-01 0.00000e+00 0.00000e+00
 7.17718e-01 0.00000e+00 0.00000e+00
 7.18719e-01 0.00000e+00 0.00000e+00
 7.19720e-01 0.00000e+00 0.00000e+00
 7.20721e-01 0.00000e+00 0.00000e+00
 7.21722e-01 0.00000e+00 0.00000e+00
 7.22723e-01 0.00000e+00 0.00000e+00
 7.23724e-01 0.00000e+00 0.00000e+00
 7.24725e-01 0.00000e+00 0.00000e+00
 7.25726e-01 0.00000e+00 0.00000e+00
 7.26727e-01 0.00000e+00 0.00000e+00
 7.27728e-01 0.00000e+00 0.00000e+00
 7.28729e-01 0.00000e+00 0.00000e+00
 7.29730e-01 0.00000e+00 0.00000e+00
 7.30731e-01 0.00000e+00 0.00000e+00
 7.31732e-01 0.00000e+00 0.00000e+00
 7.32733e-01 0.00000e+00 0.00000e+00
 7.33734e-01 0.00000e+00 0.00000e+00
 7.34735e-01 0.00000e+00 0.00000e+00
 7.35736e-01 0.00000e+00 0.00000e+00
 7.36737e-01 0.00000e+00 0.00000e+00
 7.37738e-01 0.00000e+00 0.00000e+00
 7.38739e-01 0.00000e+00 0.00000e+00
 7.39740e-01 0.00000e+00 0.00000e+00
 7.40741e-01 0.00000e+00 0.00000e+00
 7.41742e-01 0.00000e+00 0.00000e+00
 7.42743e-01 0.00000e+00 0.00000e+00
 7.43744e-01 0.00000e+00 0.00000e+00
 7.44745e-01 0.00000e+00 0.00000e+00
 7.45746e-01 0.00000e+00 0.00000e+00
 7.46747e-01 0.00000e+00 0.00000e+00
 7.47748e-01 0.00000e+00 0.00000e+00
 7.48749e-01 0.00000e+00 0.00000e+00
 7.49750e-01 0.00000e+00 0.00000e+00
 7.50751e-01 0.00000e+00 0.00000e+00
 7.51752e-01 0.00000e+00 0.00000e+00
 7.52753e-01 0.00000e+00 0.00000e+00
 7.53754e-01 0.00000e+00 0.00000e+00
 7.54755e-01 0.00000e+00 0.00000e+00
 7.55756e-01 0.00000e+00 0.00000e+00
 7.56757e-01 0.00000e+00 0.00000e+00
 7.57758e-01 0.00000e+00 0.00000e+00
 7.58759e-01 0.00000e+00 0.00000e+00
 7.59760e-01 0.00000e+00 0.00000e+00
 7.60761e-01 0.00000e+00 0.00000e+00
 7.61762e-01 0.00000e+00 0.00000e+00
 7.62763e-01 0.00000e+00 0.00000e+00
 7.63764e-01 0.00000e+00 0.00000e+00
 7.64765e-01 0.00000e+00 0.00000e+00
 7.65766e-01 0.00000e+00 0.00000e+00
 7.66767e-01 0.00000e+00 0.00000e+00
 7.67768e-01 0.00000e+00 0.00000e+00
 7.68769e-01 0.00000e+00 0.00000e+00
 7.69770e-01 0.00000e+00 0.00000e+00
 7.70771e-01 0.00000e+00 0.00000e+00
 7.71772e-01 0.00000e+00 0.00000e+00
 7.72773e-01 0.00000e+00 0.00000e+00
 7.73774e-01 0.00000e+00 0.00000e+00
 7.74775e-01 0.00000e+00 0.00000e+00
 7.75776e-01 0.00000e+00 0.00000e+00
 7.76777e-01 0.00000e+00 0.00000e+00
 7.77778e-01 0.00000e+00 0.00000e+00
 7.78779e-01 0.00000e+00 0.00000e+00
 7.79780e-01 0.00000e+00 0.00000e+00
 7.80781e-01 0.00000e+00 0.00000e+00
 7.81782e-01 0.00000e+00 0.00000e+00
 7.82783e-01 0.00000e+00 0.00000e+00
 7.83784e-01 0.00000e+00 0.00000e+00
 7.84785e-01 0.00000e+00 0.00000e+00
 7.85786e-01 0.00000e+00 0.00000e+00
 7.86787e-01 0.00000e+00 0.00000e+00
 7.87788e-01 0.00000e+00 0.00000e+00
 7.88789e-01 0.00000e+00 0.00000e+00
 7.89790e-01 0.00000e+00 0.00000e+00
 7.90791e-01 0.00000e+00 0.00000e+00
 7.91792e-01 0.00000e+00 0.00000e+00
 7.92793e-01 0.00000e+00 0.00000e+00
 7.93794e-01 0.00000e+00 0.00000e+00
 7.94795e-01 0.00000e+00 0.00000e+00
 7.95796e-01 0.00000e+00 0.00000e+00
 7.96797e-01 0.00000e+00 0.00000e+00
 7.97798e-01 0.00000e+00 0.00000e+00
 7.98799e-01 0.00000e+00 0.00000e+00
 7.99800e-01 0.00000e+00 0.00000e+00
 8.00801e-01 0.00000e+00 0.00000e+00
 8.01802e-01 0.00000e+00 0.00000e+00
 8.02803e-01 0.00000e+00 0.00000e+00
 8.03804e-01 0.00000e+00 0.00000e+00
 8.04805e-01 0.00000e+00 0.00000e+00
 8.05806e-01 0.00000e+00 0.00000e+00
 8.06807e-01 0.00000e+00 0.00000e+00
 8.07808e-01 0.00000e+00 0.00000e+00
 8.08809e-01 0.00000e+00 0.00000e+00
 8.09810e-01 0.00000e+00 0.00000e+00
 8.10811e-01 0.00000e+00 0.00000e+00
 8.11812e-01 0.00000e+00 0.00000e+00
 8.12813e-01 0.00000e+00 0.00000e+00
 8.13814e-01 0.00000e+00 0.00000e+00
 8.14815e-01 0.00000e+00 0.00000e+00
 8.15816e-01 0.00000e+00 0.00000e+00
 8.16817e-01 0.00000e+00 0.00000e+00
 8.17818e-01 0.00000e+00 0.00000e+00
 8.18819e-01 0.00000e+00 0.00000e+00
 8.19820e-01 0.00000e+00 0.00000e+00
 8.20821e-01 0.00000e+00 0.00000e+00
 8.21822e-01 0.00000e+00 0.00000e+00
 8.22823e-01 0.00000e+00 0.00000e+00
 8.23824e-01 0.00000e+00 0.00000e+00
 8.24825e-01 0.00000e+00 0.00000e+00
 8.25826e-01 0.00000e+00 0.00000e+00
 8.26827e-01 0.00000e+00 0.00000e+00
 8.27828e-01 0.00000e+00 0.00000e+00
 8.28829e-01 0.00000e+00 0.00000e+00
 8.29830e-01 0.00000e+00 0.00000e+00
 8.30831e-01 0.00000e+00 0.00000e+00
 8.31832e-01 0.00000e+00 0.00000e+00
 8.32833e-01 0.00000e+00 0.00000e+00
 8.33834e-01 0.00000e+00 0.00000e+00
 8.34835e-01 0.00000e+00 0.00000e+00
 8.35836e-01 0.00000e+00 0.00000e+00
 8.36837e-01 0.00000e+00 0.00000e+00
 8.37838e-01 0.00000e+00 0.00000e+00
 8.38839e-01 0.00000e+00 0.00000e+00
 8.39840e-01 0.00000e+00 0.00000e+00
 8.40841e-01 0.00000e+00 0.00000e+00
 8.41842e-01 0.00000e+00 0.00000e+00
 8.42843e-01 0.00000e+00 0.00000e+00
 8.43844e-01 0.00000e+00 0.00000e+00
 8.44845e-01 0.00000e+00 0.00000e+00
 8.45846e-01 0.00000e+00 0.00000e+00
 8.46847e-01 0.00000e+00 0.00000e+00
 8.47848e-01 0.00000e+00 0.00000e+00
 8.48849e-01 0.00000e+00 0.00000e+00
 8.49850e-01 0.00000e+00 0.00000e+00
 8.50851e-01 0.00000e+00 0.00000e+00
 8.51852e-01 0.00000e+00 0.00000e+00
 8.52853e-01 0.00000e+00 0.00000e+00
 8.53854e-01 0.00000e+00 0.00000e+00
 8.54855e-01 0.00000e+00 0.00000e+00
 8.55856e-01 0.00000e+00 0.00000e+00
 8.56857e-01 0.00000e+00 0.00000e+00
 8.57858e-01 0.00000e+00 0.00000e+00
 8.58859e-01 0.00000e+00 0.00000e+00
 8.59860e-01 0.00000e+00 0.00000e+00
 8.60861e-01 0.00000e+00 0.00000e+00
 8.61862e-01 0.00000e+00 0.00000e+00
 8.62863e-01 0.00000e+00 0.00000e+00
 8.63864e-01 0.00000e+00 0.00000e+00
 8.64865e-01 0.00000e+00 0.00000e+00
 8.65866e-01 0.00000e+00 0.00000e+00
 8.66867e-01 0.00000e+00 0.00000e+00
 8.67868e-01 0.00000e+00 0.00000e+00
 8.68869e-01 0.00000e+00 0.00000e+00
 8.69870e-01 0.00000e+00 0.00000e+00
 8.70871e-01 0.00000e+00 0.00000e+00
 8.71872e-01 0.00000e+00 0.00000e+00
 8.72873e-01 0.00000e+00 0.00000e+00
 8.73874e-01 0.00000e+00 0.00000e+00
 8.74875e-01 0.00000e+00 0.00000e+00
 8.75876e-01 0.00000e+00 0.00000e+00
 8.76877e-01 0.00000e+00 0.00000e+00
 8.77878e-01 0.00000e+00 0.00000e+00
 8.78879e-01 0.00000e+00 0.00000e+00
 8.79880e-01 0.00000e+00 0.00000e+00
 8.80881e-01 0.00000e+00 0.00000e+00
 8.81882e-01 0.00000e+00 0.00000e+00
 8.82883e-01 0.00000e+00 0.00000e+00
 8.83884e-01 0.00000e+00 0.00000e+00
 8.84885e-01 0.00000e+00 0.00000e+00
 8.85886e-01 0.00000e+00 0.00000e+00
 8.86887e-01 0.00000e+00 0.00000e+00
 8.87888e-01 0.00000e+00 0.00000e+00
 8.88889e-01 0.00000e+00 0.00000e+00
 8.89890e-01 0.00000e+00 0.00000e+00
 8.90891e-01 0.00000e+00 0.00000e+00
 8.91892e-01 0.00000e+00 0.00000e+00
 8.92893e-01 0.00000e+00 0.00000e+00
 8.93894e-01 0.00000e+00 0.00000e+00
 8.94895e-01 0.00000e+00 0.00000e+00
 8.95896e-01 0.00000e+00 0.00000e+00
 8.96897e-01 0.00000e+00 0.00000e+00
 8.97898e-01 0.00000e+00 0.00000e+00
 8.98899e-01 0.00000e+00 0.00000e+00
 8.99900e-01 0.00000e+00 0.00000e+00
 9.00901e-01 0.00000e+00 0.00000e+00
 9.01902e-01 0.00000e+00 0.00000e+00
 9.02903e-01 0.00000e+00 0.00000e+00
 9.03904e-01 0.00000e+00 0.00000e+00
 9.04905e-01 0.00000e+00 0.00000e+00
 9.05906e-01 0.00000e+00 0.00000e+00
 9.06907e-01 0.00000e+00 0.00000e+00
 9.07908e-01 0.00000e+00 0.00000e+00
 9.08909e-01 0.00000e+00 0.00000e+00
 9.09910e-01 0.00000e+00 0.00000e+00
 9.10911e-01 0.00000e+00 0.00000e+00
 9.11912e-01 0.00000e+00 0.00000e+00
 9.12913e-01 0.00000e+00 0.00000e+00
 9.13914e-01 0.00000e+00 0.00000e+00
 9.14915e-01 0.00000e+00 0.00000e+00
 9.15916e-01 0.00000e+00 0.00000e+00
 9.16917e-01 0.00000e+00 0.00000e+00
 9.17918e-01 0.00000e+00 0.00000e+00
 9.18919e-01 0.00000e+00 0.00000e+00
 9.19920e-01 0.00000e+00 0.00000e+00
 9.20921e-01 0.00000e+00 0.00000e+00
 9.21922e-01 0.00000e+00 0.00000e+00
 9.22923e-01 0.00000e+00 0.00000e+00
 9.23924e-01 0.00000e+00 0.00000e+00
 9.24925e-01 0.00000e+00 0.00000e+00
 9.25926e-01 0.00000e+00 0.00000e+00
 9.26927e-01 0.00000e+00 0.00000e+00
 9.27928e-01 0.00000e+00 0.00000e+00
 9.28929e-01 0.00000e+00 0.00000e+00
 9.29930e-01 0.00000e+00 0.00000e+00
 9.30931e-01 0.00000e+00 0.00000e+00
 9.31932e-01 0.00000e+00 0.00000e+00
 9.32933e-01 0.00000e+00 0.00000e+00
 9.33934e-01 0.00000e+00 0.00000e+00
 9.34935e-01 0.00000e+00 0.00000e+00
 9.35936e-01 0.00000e+00 0.00000e+00
 9.36937e-01 0.00000e+00 0.00000e+00
 9.37938e-01 0.00000e+00 0.00000e+00
 9.38939e-01 0.00000e+00 0.00000e+00
 9.39940e-01 0.00000e+00 0.00000e+00
 9.40941e-01 0.00000e+00 0.00000e+00
 9.41942e-01 0.00000e+00 0.00000e+00
 9.42943e-01 0.00000e+00 0.00000e+00
 9.43944e-01 0.00000e+00 0.00000e+00
 9.44945e-01 0.00000e+00 0.00000e+00
 9.45946e-01 0.00000e+00 0.00000e+00
 9.46947e-01 0.00000e+00 0.00000e+00
 9.47948e-01 0.00000e+00 0.00000e+00
 9.48949e-01 0.00000e+00 0.00000e+00
 9.49950e-01 0.00000e+00 0.00000e+00
 9.50951e-01 0.00000e+00 0.00000e+00
 9.51952e-01 0.00000e+00 0.00000e+00
 9.52953e-01 0.00000e+00 0.00000e+00
 9.53954e-01 0.00000e+00 0.00000e+00
 9.54955e-01 0.00000e+00 0.00000e+00
 9.55956e-01 0.00000e+00 0.00000e+00
 9.56957e-01 0.00000e+00 0.00000e+00
 9.57958e-01 0.00000e+00 0.00000e+00
 9.58959e-01 0.00000e+00 0.00000e+00
 9.59960e-01 0.00000e+00 0.00000e+00
 9.60961e-01 0.00000e+00 0.00000e+00
 9.61962e-01 0.00000e+00 0.00000e+00
 9.62963e-01 0.00000e+00 0.00000e+00
 9.63964e-01 0.00000e+00 0.00000e+00
 9.64965e-01 0.00000e+00 0.00000e+00
 9.65966e-01 0.00000e+00 0.00000e+00
 9.66967e-01 0.00000e+00 0.00000e+00
 9.67968e-01 0.00000e+00 0.00000e+00
 9.68969e-01 0.00000e+00 0.00000e+00
 9.69970e-01 0.00000e+00 0.00000e+00
 9.70971e-01 0.00000e+00 0.00000e+00
 9.71972e-01 0.00000e+00 0.00000e+00
 9.72973e-01 0.00000e+00 0.00000e+00
 9.73974e-01 0.00000e+00 0.00000e+00
 9.74975e-01 0.00000e+00 0.00000e+00
 9.75976e-01 0.00000e+00 0.00000e+00
 9.76977e-01 0.00000e+00 0.00000e+00
 9.77978e-01 0.00000e+00 0.00000e+00
 9.78979e-01 0.00000e+00 0.00000e+00
 9.79980e-01 0.00000e+00 0.00000e+00
 9.80981e-01 0.00000e+00 0.00000e+00
 9.81982e-01 0.00000e+00 0.00000e+00
 9.82983e-01 0.00000e+00 0.00000e+00
 9.83984e-01 0.00000e+00 0.00000e+00
 9.84985e-01 0.00000e+00 0.00000e+00
 9.85986e-01 0.00000e+00 0.00000e+00
 9.86987e-01 0.00000e+00 0.00000e+00
 9.87988e-01 0.00000e+00 0.00000e+00
 9.88989e-01 0.00000e+00 0.00000e+00
 9.89990e-01 0.00000e+00 0.00000e+00
 9.90991e-01 0.00000e+00 0.00000e+00
 9.91992e-01 0.00000e+00 0.00000e+00
 9.92993e-01 0.00000e+00 0.00000e+00
 9.93994e-01 0.00000e+00 0.00000e+00
 9.94995e-01 0.00000e+00 0.00000e+00
 9.95996e-01 0.00000e+00 0.00000e+00
 9.96997e-01 0.00000e+00 0.00000e+00
 9.97998e-01 0.00000e+00 0.00000e+00
 9.98999e-01 0.00000e+00 0.00000e+00
 1.00000e+00 0.00000e+00 0.00000e+00
part 	1
MeshLabel_1
point
       1
       1
part       2
MeshLabel_2
point
       1
    1000
part       3
MeshLabel_3
bar2
     999
       1       2
       2       3
       3       4
       4       5
       5       6
       6       7
       7       8
       8       9
       9      10
      10      11
      11      12
      12      13
      13      14
      14      15
      15      16
      16      17
      17      18
      18      19
      19      20
      20      21
      21      22
      22      23
      23      24
      24      25
      25      26
      26      27
      27      28
      28      29
      29      30
      30      31
      31      32
      32      33
      33      34
      34      35
      35      36
      36      37
      37      38
      38      39
      39      40
      40      41
      41      42
      42      43
      43      44
      44      45
      45      46
      46      47
      47      48
      48      49
      49      50
      50      51
      51      52
      52      53
      53      54
      54      55
      55      56
      56      57
      57      58
      58      59
      59      60
      60      61
      61      62
      62      63
      63      64
      64      65
      65      66
      66      67
      67      68
      68      69
      69      70
      70      71
      71      72
      72      73
      73      74
      74      75
      75      76
      76      77
      77      78
      78      79
      79      80
      80      81
      81      82
      82      83
      83      84
      84      85
      85      86
      86      87
      87      88
      88      89
      89      90
      90      91
      91      92
      92      93
      93      94
      94      95
      95      96
      96      97
      97      98
      98      99
      99     100
     100     101
     101     102
     102     103
     103     104
     104     105
     105     106
     106     107
     107     108
     108     109
     109     110
     110     111
     111     112
     112     113
     113     114
     114     115
     115     116
     116     117
     117     118
     118     119
     119     120
     120     121
     121     122
     122     123
     123     124
     124     125
     125     126
     126     127
     127     128
     128     129
     129     130
     130     131
     131     132
     132     133
     133     134
     134     135
     135     136
     136     137
     137     138
     138     139
     139     140
     140     141
     141     142
     142     143
     143     144
     144     145
     145     146
     146     147
     147     148
     148     149
     149     150
     150     151
     151     152
     152     153
     153     154
     154     155
     155     156
     156     157
     157     158
     158     159
     159     160
     160     161
     161     162
     162     163
     163     164
     164     165
     165     166
     166     167
     167     168
     168     169
     169     170
     170     171
     171     172
     172     173
     173     174
     174     175
     175     176
     176     177
     177     178
     178     179
     179     180
     180     181
     181     182
     182     183
     183     184
     184     185
     185     186
     186     187
     187     188
     188     189
     189     190
     190     191
     191     192
     192     193
     193     194
     194     195
     195     196
     196     197
     197     198
     198     199
     199     200
     200     201
     201     202
     202     203
     203     204
     204     205
     205     206
     206     207
     207     208
     208     209
     209     210
     210     211
     211     212
     212     213
     213     214
     214     215
     215     216
     216     217
     217     218
     218     219
     219     220
     220     221
     221     222
     222     223
     223     224
     224     225
     225     226
     226     227
     227     228
     228     229
     229     230
     230     231
     231     232
     232     233
     233     234
     234     235
     235     236
     236     237
     237     238
     238     239
     239     240
     240     241
     241     242
     242     243
     243     244
     244     245
     245     246
     246     247
     247     248
     248     249
     249     250
     250     251
     251     252
     252     253
     253     254
     254     255
     255     256
     256     257
     257     258
     258     259
     259     260
     260     261
     261     262
     262     263
     263     264
     264     265
     265     266
     266     267
     267     268
     268     269
     269     270
     270     271
     271     272
     272     273
     273     274
     274     275
     275     276
     276     277
     277     278
     278     279
     279     280
     280     281
     281     282
     282     283
     283     284
     284     285
     285     286
     286     287
     287     288
     288     289
     289     290
     290     291
     291     292
     292     293
     293     294
     294     295
     295     296
     296     297
     297     298
     298     299
     299     300
     300     301
     301     302
     302     303
     303     304
     304     305
     305     306
     306     307
     307     308
     308     309
     309     310
     310     311
     311     312
     312     313
     313     314
     314     315
     315     316
     316     317
     317     318
     318     319
     319     320
     320     321
     321     322
     322     323
     323     324
     324     325
     325     326
     326     327
     327     328
     328     329
     329     330
     330     331
     331     332
     332     333
     333     334
     334     335
     335     336
     336     337
     337     338
     338     339
     339     340
     340     341
     341     342
     342     343
     343     344
     344     345
     345     346
     346     347
     347     348
     348     349
     349     350
     350     351
     351     352
     352     353
     353     354
     354     355
     355     356
     356     357
     357     358
     358     359
     359     360
     360     361
     361     362
     362     363
     363     364
     364     365
     365     366
     366     367
     367     368
     368     369
     369     370
     370     371
     371     372
     372     373
     373     374
     374     375
     375     376
     376     377
     377     378
     378     379
     379     380
     380     381
     381     382
     382     383
     383     384
     384     385
     385     386
     386     387
     387     388
     388     389
     389     390
     390     391
     391     392
     392     393
     393     394
     394     395
     395     396
     396     397
     397     398
     398     399
     399     400
     400     401
     401     402
     402     403
     403     404
     404     405
     405     406
     406     407
     407     408
     408     409
     409     410
     410     411
     411     412
     412     413
     413     414
     414     415
     415     416
     416     417
     417     418
     418     419
     419     420
     420     421
     421     422
     422     423
     423     424
     424     425
     425     426
     426     427
     427     428
     428     429
     429     430
     430     431
     431     432
     432     433
     433     434
     434     435
     435     436
     436     437
     437     438
     438     439
     439     440
     440     441
     441     442
     442     443
     443     444
     444     445
     445     446
     446     447
     447     448
     448     449
     449     450
     450     451
     451     452
     452     453
     453     454
     454     455
     455     456
     456     457
     457     458
     458     459
     459     460
     460     461
     461     462
     462     463
     463     464
     464     465
     465     466
     466     467
     467     468
     468     469
     469     470
     470     471
     471     472
     472     473
     473     474
     474     475
     475     476
     476     477
     477     478
     478     479
     479     480
     480     481
     481     482
     482     483
     483     484
     484     485
     485     486
     486     487
     487     488
     488     489
     489     490
     490     491
     491     492
     492     493
     493     494
     494     495
     495     496
     496     497
     497     498
     498     499
     499     500
     500     501
     501     502
     502     503
     503     504
     504     505
     505     506
     506     507
     507     508
     508     509
     509     510
     510     511
     511     512
     512     513
     513     514
     514     515
     515     516
     516     517
     517     518
     518     519
     519     520
     520     521
     521     522
     522     523
     523     524
     524     525
     525     526
     526     527
     527     528
     528     529
     529     530
     530     531
     531     532
     532     533
     533     534
     534     535
     535     536
     536     537
     537     538
     538     539
     539     540
     540     541
     541     542
     542     543
     543     544
     544     545
     545     546
     546     547
     547     548
     548     549
     549     550
     550     551
     551     552
     552     553
     553     554
     554     555
     555     556
     556     557
     557     558
     558     559
     559     560
     560     561
     561     562
     562     563
     563     564
     564     565
     565     566
     566     567
     567     568
     568     569
     569     570
     570     571
     571     572
     572     573
     573     574
     574     575
     575     576
     576     577
     577     578
     578     579
     579     580
     580     581
     581     582
     582     583
     583     584
     584     585
     585     586
     586     587
     587     588
     588     589
     589     590
     590     591
     591     592
     592     593
     593     594
     594     595
     595     596
     596     597
     597     598
     598     599
     599     600
     600     601
     601     602
     602     603
     603     604
     604     605
     605     606
     606     607
     607     608
     608     609
     609     610
     610     611
     611     612
     612     613
     613     614
     614     615
     615     616
     616     617
     617     618
     618     619
     619     620
     620     621
     621     622
     622     623
     623     624
     624     625
     625     626
     626     627
     627     628
     628     629
     629     630
     630     631
     631     632
     632     633
     633     634
     634     635
     635     636
     636     637
     637     638
     638     639
     639     640
     640     641
     641     642
     642     643
     643     644
     644     645
     645     646
     646     647
     647     648
     648     649
     649     650
     650     651
     651     652
     652     653
     653     654
     654     655
     655     656
     656     657
     657     658
     658     659
     659     660
     660     661
     661     662
     662     663
     663     664
     664     665
     665     666
     666     667
     667     668
     668     669
     669     670
     670     671
     671     672
     672     673
     673     674
     674     675
     675     676
     676     677
     677     678
     678     679
     679     680
     680     681
     681     682
     682     683
     683     684
     684     685
     685     686
     686     687
     687     688
     688     689
     689     690
     690     691
     691     692
     692     693
     693     694
     694     695
     695     696
     696     697
     697     698
     698     699
     699     700
     700     701
     701     702
     702     703
     703     704
     704     705
     705     706
     706     707
     707     708
     708     709
     709     710
     710     711
     711     712
     712     713
     713     714
     714     715
     715     716
     716     717
     717     718
     718     719
     719     720
     720     721
     721     722
     722     723
     723     724
     724     725
     725     726
     726     727
     727     728
     728     729
     729     730
     730     731
     731     732
     732     733
     733     734
     734     735
     735     736
     736     737
     737     738
     738     739
     739     740
     740     741
     741     742
     742     743
     743     744
     744     745
     745     746
     746     747
     747     748
     748     749
     749     750
     750     751
     751     752
     752     753
     753     754
     754     755
     755     756
     756     757
     757     758
     758     759
     759     760
     760     761
     761     762
     762     763
     763     764
     764     765
     765     766
     766     767
     767     768
     768     769
     769     770
     770     771
     771     772
     772     773
     773     774
     774     775
     775     776
     776     777
     777     778
     778     779
     779     780
     780     781
     781     782
     782     783
     783     784
     784     785
     785     786
     786     787
     787     788
     788     789
     789     790
     790     791
     791     792
     792     793
     793     794
     794     795
     795     796
     796     797
     797     798
     798     799
     799     800
     800     801
     801     802
     802     803
     803     804
     804     805
     805     806
     806     807
     807     808
     808     809
     809     810
     810     811
     811     812
     812     813
     813     814
     814     815
     815     816
     816     817
     817     818
     818     819
     819     820
     820     821
     821     822
     822     823
     823     824
     824     825
     825     826
     826     827
     827     828
     828     829
     829     830
     830     831
     831     832
     832     833
     833     834
     834     835
     835     836
     836     837
     837     838
     838     839
     839     840
     840     841
     841     842
     842     843
     843     844
     844     845
     845     846
     846     847
     847     848
     848     849
     849     850
     850     851
     851     852
     852     853
     853     854
     854     855
     855     856
     856     857
     857     858
     858     859
     859     860
     860     861
     861     862
     862     863
     863     864
     864     865
     865     866
     866     867
     867     868
     868     869
     869     870
     870     871
     871     872
     872     873
     873     874
     874     875
     875     876
     876     877
     877     878
     878     879
     879     880
     880     881
     881     882
     882     883
     883     884
     884     885
     885     886
     886     887
     887     888
     888     889
     889     890
     890     891
     891     892
     892     893
     893     894
     894     895
     895     896
     896     897
     897     898
     898     899
     899     900
     900     901
     901     902
     902     903
     903     904
     904     905
     905     906
     906     907
     907     908
     908     909
     909     910
     910     911
     911     912
     912     913
     913     914
     914     915
     915     916
     916     917
     917     918
     918     919
     919     920
     920     921
     921     922
     922     923
     923     924
     924     925
     925     926
     926     927
     927     928
     928     929
     929     930
     930     931
     931     932
     932     933
     933     934
     934     935
     935     936
     936     937
     937     938
     938     939
     939     940
     940     941
     941     942
     942     943
     943     944
     944     945
     945     946
     946     947
     947     948
     948     949
     949     950
     950     951
     951     952
     952     953
     953     954
     954     955
     955     956
     956     957
     957     958
     958     959
     959     960
     960     961
     961     962
     962     963
     963     964
     964     965
     965     966
     966     967
     967     968
     968     969
     969     970
     970     971
     971     972
     972     973
     973     974
     974     975
     975     976
     976     977
     977     978
     978     979
     979     980
     980     981
     981     982
     982     983
     983     984
     984     985
     985     986
     986     987
     987     988
     988     989
     989     990
     990     991
     991     992
     992     993
     993     994
     994     995
     995     996
     996     997
     997     998
     998     999
     999    1000
