Geometry file
Geometry file
node id assign
element id assign
coordinates
      2
 0.00000e+00 0.00000e+00 0.00000e+00
 1.00000e+00 0.00000e+00 0.00000e+00
part 	1
MeshLabel_1
bar2
      1
       1       2
